Tidyverse
…
---

# Importando dados com **readr** e **tibble**

```r
dados_raw <- read_csv2(
  "https://github.com/italocegatta/italocegatta.github.io_source/raw/master/content/dados/tume_55_24.csv"
)

dados_raw
```

```
## # A tibble: 1,881 x 9
##    N_tume I_meses Esp          Parc_m2 N_arv DAP_cm   H_m   Cod  Cod2
##     <dbl>   <dbl> <chr>          <dbl> <dbl>  <dbl> <dbl> <dbl> <dbl>
##  1     55      24 E_botryoides     600     1    4.1   6.5    NA    NA
##  2     55      24 E_botryoides     600     2    9.7   8      NA    NA
##  3     55      24 E_botryoides     600     3   NA    NA       5    NA
##  4     55      24 E_botryoides     600     4    7.6   7.5     2    NA
##  5     55      24 E_botryoides     600     5    3.8   5      NA    NA
##  6     55      24 E_botryoides     600     6   NA    NA       1    NA
##  7     55      24 E_botryoides     600     7   12.6   9       6    NA
##  8     55      24 E_botryoides     600     8   NA    NA       1    NA
##  9     55      24 E_botryoides     600     9    7     8      NA    NA
## 10     55      24 E_botryoides     600    10    7.5   7.5    NA    NA
## # ... with 1,871 more rows
```

---

# Manipulando dados com **dplyr** e **pipe**

```r
dados <- dados_raw %>% 
  select(Esp, DAP_cm, H_m) %>% 
  filter(Esp %in% c("E_saligna", "E_urophylla"))

dados
```

```
## # A tibble: 160 x 3
##    Esp       DAP_cm   H_m
##    <chr>      <dbl> <dbl>
##  1 E_saligna    8.6   9.5
##  2 E_saligna   11.8  11  
##  3 E_saligna   NA    NA  
##  4 E_saligna    9.9  10.5
##  5 E_saligna    9.9  10.5
##  6 E_saligna    6.4   8.5
##  7 E_saligna    9.9  11  
##  8 E_saligna   10.5  10.5
##  9 E_saligna    8.1   9.5
## 10 E_saligna   10    10  
## # ... with 150 more rows
```
…
---

# Dados preditos

```r
dados_compl <- dados_pred %>%
  unnest(data, hpred)

dados_compl
```

```
## # A tibble: 160 x 4
## # Groups:   Esp [2]
##    Esp       DAP_cm   H_m hpred
##    <chr>      <dbl> <dbl> <dbl>
##  1 E_saligna    8.6   9.5 10.5 
##  2 E_saligna   11.8  11   11.7 
##  3 E_saligna   NA    NA   NA   
##  4 E_saligna    9.9  10.5 11.1 
##  5 E_saligna    9.9  10.5 11.1 
##  6 E_saligna    6.4   8.5  9.20
##  7 E_saligna    9.9  11   11.1 
##  8 E_saligna   10.5  10.5 11.3 
##  9 E_saligna    8.1   9.5 10.3 
## 10 E_saligna   10    10   11.1 
## # ... with 150 more rows
```
…
